-- Merging decision tree log ---
manifest
ADDED from D:\cs\cs 4.1\android\070822\android-basics-kotlin-dessert-clicker-app-starter\app\src\main\AndroidManifest.xml:17:1-37:12
INJECTED from D:\cs\cs 4.1\android\070822\android-basics-kotlin-dessert-clicker-app-starter\app\src\main\AndroidManifest.xml:17:1-37:12
INJECTED from D:\cs\cs 4.1\android\070822\android-basics-kotlin-dessert-clicker-app-starter\app\src\main\AndroidManifest.xml:17:1-37:12
INJECTED from D:\cs\cs 4.1\android\070822\android-basics-kotlin-dessert-clicker-app-starter\app\src\main\AndroidManifest.xml:17:1-37:12
MERGED from [androidx.databinding:databinding-adapters:7.0.3] C:\Users\piyat\.gradle\caches\transforms-3\08a44f76bc0bfde46e1429a2f76af097\transformed\databinding-adapters-7.0.3\AndroidManifest.xml:17:1-22:12
MERGED from [androidx.databinding:databinding-ktx:7.0.3] C:\Users\piyat\.gradle\caches\transforms-3\06d73791fd113183629a7063cc6076fc\transformed\jetified-databinding-ktx-7.0.3\AndroidManifest.xml:17:1-22:12
MERGED from [androidx.databinding:databinding-runtime:7.0.3] C:\Users\piyat\.gradle\caches\transforms-3\fa88c089eb037239750e5c3ab5dc50ec\transformed\databinding-runtime-7.0.3\AndroidManifest.xml:17:1-22:12
MERGED from [com.google.android.material:material:1.4.0] C:\Users\piyat\.gradle\caches\transforms-3\b64c581a9daa138f08ffadfeafcf90fd\transformed\material-1.4.0\AndroidManifest.xml:17:1-24:12
MERGED from [androidx.constraintlayout:constraintlayout:2.1.1] C:\Users\piyat\.gradle\caches\transforms-3\c6e6b7c8875e264f9f97d3822c951574\transformed\constraintlayout-2.1.1\AndroidManifest.xml:2:1-11:12
MERGED from [androidx.appcompat:appcompat:1.3.1] C:\Users\piyat\.gradle\caches\transforms-3\a41f65a1b182ec9e11a9bbe3d48996cb\transformed\appcompat-1.3.1\AndroidManifest.xml:17:1-24:12
MERGED from [androidx.lifecycle:lifecycle-extensions:2.2.0] C:\Users\piyat\.gradle\caches\transforms-3\8d5d83c8b0491c093e6174b1bf4d44e5\transformed\lifecycle-extensions-2.2.0\AndroidManifest.xml:17:1-27:12
MERGED from [androidx.viewpager2:viewpager2:1.0.0] C:\Users\piyat\.gradle\caches\transforms-3\f20e658da7692681c8bd44c3436e9874\transformed\jetified-viewpager2-1.0.0\AndroidManifest.xml:17:1-24:12
MERGED from [androidx.fragment:fragment:1.3.6] C:\Users\piyat\.gradle\caches\transforms-3\ba4991d87bc44489b24732ceb6018d63\transformed\fragment-1.3.6\AndroidManifest.xml:17:1-24:12
MERGED from [androidx.activity:activity:1.2.4] C:\Users\piyat\.gradle\caches\transforms-3\8e47eee6ba114b0eb7d7e253cf31940a\transformed\jetified-activity-1.2.4\AndroidManifest.xml:17:1-24:12
MERGED from [androidx.appcompat:appcompat-resources:1.3.1] C:\Users\piyat\.gradle\caches\transforms-3\b8b350c66e1bae521a6c8a10b95f5f20\transformed\jetified-appcompat-resources-1.3.1\AndroidManifest.xml:17:1-24:12
MERGED from [androidx.drawerlayout:drawerlayout:1.0.0] C:\Users\piyat\.gradle\caches\transforms-3\3d9b666e8753ee91985d326ee432e540\transformed\drawerlayout-1.0.0\AndroidManifest.xml:17:1-22:12
MERGED from [androidx.coordinatorlayout:coordinatorlayout:1.1.0] C:\Users\piyat\.gradle\caches\transforms-3\d02084a864f4e30a2f48c6b9eb01b52b\transformed\coordinatorlayout-1.1.0\AndroidManifest.xml:17:1-24:12
MERGED from [androidx.dynamicanimation:dynamicanimation:1.0.0] C:\Users\piyat\.gradle\caches\transforms-3\6573456f1b21b143915dbfdebcbd2bc4\transformed\dynamicanimation-1.0.0\AndroidManifest.xml:17:1-22:12
MERGED from [androidx.transition:transition:1.2.0] C:\Users\piyat\.gradle\caches\transforms-3\94b3e8f4666ed8e1388191a5fc011b9e\transformed\transition-1.2.0\AndroidManifest.xml:17:1-24:12
MERGED from [androidx.vectordrawable:vectordrawable-animated:1.1.0] C:\Users\piyat\.gradle\caches\transforms-3\ae153f83ce77cbb7db268a4b0cc0fdd6\transformed\vectordrawable-animated-1.1.0\AndroidManifest.xml:17:1-24:12
MERGED from [androidx.vectordrawable:vectordrawable:1.1.0] C:\Users\piyat\.gradle\caches\transforms-3\e0977116317d9a78ee8c487fa15d7b6b\transformed\vectordrawable-1.1.0\AndroidManifest.xml:17:1-24:12
MERGED from [androidx.viewpager:viewpager:1.0.0] C:\Users\piyat\.gradle\caches\transforms-3\3c78f5ed1630efcc3cd9dea3ded253bf\transformed\viewpager-1.0.0\AndroidManifest.xml:17:1-22:12
MERGED from [androidx.legacy:legacy-support-core-utils:1.0.0] C:\Users\piyat\.gradle\caches\transforms-3\c80b889a3047ecf71e0ef4e2506dcaba\transformed\legacy-support-core-utils-1.0.0\AndroidManifest.xml:17:1-22:12
MERGED from [androidx.loader:loader:1.0.0] C:\Users\piyat\.gradle\caches\transforms-3\f785a0b962ae08fc7afefe6b0fd39427\transformed\loader-1.0.0\AndroidManifest.xml:17:1-22:12
MERGED from [androidx.recyclerview:recyclerview:1.1.0] C:\Users\piyat\.gradle\caches\transforms-3\1b79bcd88b26c32ec6486c8931a58369\transformed\recyclerview-1.1.0\AndroidManifest.xml:17:1-24:12
MERGED from [androidx.customview:customview:1.0.0] C:\Users\piyat\.gradle\caches\transforms-3\f1a81a42c8ff15780a4adadf7c35e44d\transformed\customview-1.0.0\AndroidManifest.xml:17:1-22:12
MERGED from [androidx.core:core:1.5.0] C:\Users\piyat\.gradle\caches\transforms-3\809ddce9e66ca99403b9a3e2d0b9af39\transformed\core-1.5.0\AndroidManifest.xml:17:1-26:12
MERGED from [androidx.versionedparcelable:versionedparcelable:1.1.1] C:\Users\piyat\.gradle\caches\transforms-3\59f55c60b75f4ec7c431101538ca0695\transformed\versionedparcelable-1.1.1\AndroidManifest.xml:17:1-27:12
MERGED from [androidx.databinding:viewbinding:7.0.3] C:\Users\piyat\.gradle\caches\transforms-3\119217694d324432b60b6cb1bf0212d0\transformed\jetified-viewbinding-7.0.3\AndroidManifest.xml:17:1-22:12
MERGED from [androidx.lifecycle:lifecycle-runtime-ktx:2.2.0] C:\Users\piyat\.gradle\caches\transforms-3\3470a170942cfd16cab8e01f6a4bba05\transformed\jetified-lifecycle-runtime-ktx-2.2.0\AndroidManifest.xml:17:1-24:12
MERGED from [androidx.lifecycle:lifecycle-process:2.2.0] C:\Users\piyat\.gradle\caches\transforms-3\d021bec982e8e10b97ccac4f686ff33c\transformed\jetified-lifecycle-process-2.2.0\AndroidManifest.xml:17:1-32:12
MERGED from [androidx.lifecycle:lifecycle-service:2.2.0] C:\Users\piyat\.gradle\caches\transforms-3\a6a2cbe5185f6e3515044298698e354e\transformed\jetified-lifecycle-service-2.2.0\AndroidManifest.xml:17:1-24:12
MERGED from [androidx.lifecycle:lifecycle-runtime:2.3.1] C:\Users\piyat\.gradle\caches\transforms-3\c8995e00295f143768a28e95e891f2f4\transformed\lifecycle-runtime-2.3.1\AndroidManifest.xml:17:1-24:12
MERGED from [androidx.cursoradapter:cursoradapter:1.0.0] C:\Users\piyat\.gradle\caches\transforms-3\87c7be2790850eea814cd66c813d96d7\transformed\cursoradapter-1.0.0\AndroidManifest.xml:17:1-22:12
MERGED from [androidx.lifecycle:lifecycle-viewmodel-savedstate:2.3.1] C:\Users\piyat\.gradle\caches\transforms-3\2713bfec98872afbbb34e9b7ab15daa4\transformed\jetified-lifecycle-viewmodel-savedstate-2.3.1\AndroidManifest.xml:17:1-24:12
MERGED from [androidx.savedstate:savedstate:1.1.0] C:\Users\piyat\.gradle\caches\transforms-3\3b2c9c620de09f2890ea53d7ec68fa11\transformed\jetified-savedstate-1.1.0\AndroidManifest.xml:17:1-24:12
MERGED from [androidx.lifecycle:lifecycle-viewmodel:2.3.1] C:\Users\piyat\.gradle\caches\transforms-3\8833a61958ada1483003b8864c572a5d\transformed\lifecycle-viewmodel-2.3.1\AndroidManifest.xml:17:1-24:12
MERGED from [androidx.cardview:cardview:1.0.0] C:\Users\piyat\.gradle\caches\transforms-3\06758e689f0bced597b4e1b1801419a2\transformed\cardview-1.0.0\AndroidManifest.xml:17:1-22:12
MERGED from [androidx.lifecycle:lifecycle-livedata:2.2.0] C:\Users\piyat\.gradle\caches\transforms-3\23d4948b07529fb6cdf9896373fdd373\transformed\lifecycle-livedata-2.2.0\AndroidManifest.xml:17:1-24:12
MERGED from [androidx.lifecycle:lifecycle-livedata-core:2.3.1] C:\Users\piyat\.gradle\caches\transforms-3\b5f3c2155ad874157b3f7819fffcfab5\transformed\lifecycle-livedata-core-2.3.1\AndroidManifest.xml:17:1-24:12
MERGED from [androidx.arch.core:core-runtime:2.1.0] C:\Users\piyat\.gradle\caches\transforms-3\b02ee0dc154ea8fc0edf2ba3acf7bc41\transformed\core-runtime-2.1.0\AndroidManifest.xml:17:1-24:12
MERGED from [androidx.tracing:tracing:1.0.0] C:\Users\piyat\.gradle\caches\transforms-3\a68c583d7d2888ce27364aa9ee7b4951\transformed\jetified-tracing-1.0.0\AndroidManifest.xml:17:1-24:12
MERGED from [androidx.interpolator:interpolator:1.0.0] C:\Users\piyat\.gradle\caches\transforms-3\9825ca5498c366b52bd49e6ab2f1bf0d\transformed\interpolator-1.0.0\AndroidManifest.xml:17:1-22:12
MERGED from [androidx.documentfile:documentfile:1.0.0] C:\Users\piyat\.gradle\caches\transforms-3\43cacd4cff57d90357de9238200ed227\transformed\documentfile-1.0.0\AndroidManifest.xml:17:1-22:12
MERGED from [androidx.localbroadcastmanager:localbroadcastmanager:1.0.0] C:\Users\piyat\.gradle\caches\transforms-3\1feed067c3ccb2060a22de2b8fbdda64\transformed\localbroadcastmanager-1.0.0\AndroidManifest.xml:17:1-22:12
MERGED from [androidx.print:print:1.0.0] C:\Users\piyat\.gradle\caches\transforms-3\83a821c5ed854de3bf4d1e5fa7440a04\transformed\print-1.0.0\AndroidManifest.xml:17:1-22:12
MERGED from [androidx.annotation:annotation-experimental:1.0.0] C:\Users\piyat\.gradle\caches\transforms-3\e2889e29c071c6538bd764c3ca276473\transformed\jetified-annotation-experimental-1.0.0\AndroidManifest.xml:17:1-24:12
INJECTED from D:\cs\cs 4.1\android\070822\android-basics-kotlin-dessert-clicker-app-starter\app\src\main\AndroidManifest.xml:17:1-37:12
INJECTED from D:\cs\cs 4.1\android\070822\android-basics-kotlin-dessert-clicker-app-starter\app\src\main\AndroidManifest.xml:17:1-37:12
INJECTED from D:\cs\cs 4.1\android\070822\android-basics-kotlin-dessert-clicker-app-starter\app\src\main\AndroidManifest.xml:17:1-37:12
	package
		ADDED from D:\cs\cs 4.1\android\070822\android-basics-kotlin-dessert-clicker-app-starter\app\src\main\AndroidManifest.xml:18:5-49
		INJECTED from D:\cs\cs 4.1\android\070822\android-basics-kotlin-dessert-clicker-app-starter\app\src\main\AndroidManifest.xml
		INJECTED from D:\cs\cs 4.1\android\070822\android-basics-kotlin-dessert-clicker-app-starter\app\src\main\AndroidManifest.xml
	android:versionName
		INJECTED from D:\cs\cs 4.1\android\070822\android-basics-kotlin-dessert-clicker-app-starter\app\src\main\AndroidManifest.xml
		ADDED from D:\cs\cs 4.1\android\070822\android-basics-kotlin-dessert-clicker-app-starter\app\src\main\AndroidManifest.xml:17:1-37:12
		INJECTED from D:\cs\cs 4.1\android\070822\android-basics-kotlin-dessert-clicker-app-starter\app\src\main\AndroidManifest.xml
	android:versionCode
		INJECTED from D:\cs\cs 4.1\android\070822\android-basics-kotlin-dessert-clicker-app-starter\app\src\main\AndroidManifest.xml
		ADDED from D:\cs\cs 4.1\android\070822\android-basics-kotlin-dessert-clicker-app-starter\app\src\main\AndroidManifest.xml:17:1-37:12
		INJECTED from D:\cs\cs 4.1\android\070822\android-basics-kotlin-dessert-clicker-app-starter\app\src\main\AndroidManifest.xml
	xmlns:android
		ADDED from D:\cs\cs 4.1\android\070822\android-basics-kotlin-dessert-clicker-app-starter\app\src\main\AndroidManifest.xml:17:11-69
application
ADDED from D:\cs\cs 4.1\android\070822\android-basics-kotlin-dessert-clicker-app-starter\app\src\main\AndroidManifest.xml:20:5-35:19
MERGED from [com.google.android.material:material:1.4.0] C:\Users\piyat\.gradle\caches\transforms-3\b64c581a9daa138f08ffadfeafcf90fd\transformed\material-1.4.0\AndroidManifest.xml:22:5-20
MERGED from [com.google.android.material:material:1.4.0] C:\Users\piyat\.gradle\caches\transforms-3\b64c581a9daa138f08ffadfeafcf90fd\transformed\material-1.4.0\AndroidManifest.xml:22:5-20
MERGED from [androidx.constraintlayout:constraintlayout:2.1.1] C:\Users\piyat\.gradle\caches\transforms-3\c6e6b7c8875e264f9f97d3822c951574\transformed\constraintlayout-2.1.1\AndroidManifest.xml:9:5-20
MERGED from [androidx.constraintlayout:constraintlayout:2.1.1] C:\Users\piyat\.gradle\caches\transforms-3\c6e6b7c8875e264f9f97d3822c951574\transformed\constraintlayout-2.1.1\AndroidManifest.xml:9:5-20
MERGED from [androidx.lifecycle:lifecycle-extensions:2.2.0] C:\Users\piyat\.gradle\caches\transforms-3\8d5d83c8b0491c093e6174b1bf4d44e5\transformed\lifecycle-extensions-2.2.0\AndroidManifest.xml:24:5-25:19
MERGED from [androidx.lifecycle:lifecycle-extensions:2.2.0] C:\Users\piyat\.gradle\caches\transforms-3\8d5d83c8b0491c093e6174b1bf4d44e5\transformed\lifecycle-extensions-2.2.0\AndroidManifest.xml:24:5-25:19
MERGED from [androidx.core:core:1.5.0] C:\Users\piyat\.gradle\caches\transforms-3\809ddce9e66ca99403b9a3e2d0b9af39\transformed\core-1.5.0\AndroidManifest.xml:24:5-89
MERGED from [androidx.core:core:1.5.0] C:\Users\piyat\.gradle\caches\transforms-3\809ddce9e66ca99403b9a3e2d0b9af39\transformed\core-1.5.0\AndroidManifest.xml:24:5-89
MERGED from [androidx.versionedparcelable:versionedparcelable:1.1.1] C:\Users\piyat\.gradle\caches\transforms-3\59f55c60b75f4ec7c431101538ca0695\transformed\versionedparcelable-1.1.1\AndroidManifest.xml:24:5-25:19
MERGED from [androidx.versionedparcelable:versionedparcelable:1.1.1] C:\Users\piyat\.gradle\caches\transforms-3\59f55c60b75f4ec7c431101538ca0695\transformed\versionedparcelable-1.1.1\AndroidManifest.xml:24:5-25:19
MERGED from [androidx.lifecycle:lifecycle-process:2.2.0] C:\Users\piyat\.gradle\caches\transforms-3\d021bec982e8e10b97ccac4f686ff33c\transformed\jetified-lifecycle-process-2.2.0\AndroidManifest.xml:24:5-30:19
MERGED from [androidx.lifecycle:lifecycle-process:2.2.0] C:\Users\piyat\.gradle\caches\transforms-3\d021bec982e8e10b97ccac4f686ff33c\transformed\jetified-lifecycle-process-2.2.0\AndroidManifest.xml:24:5-30:19
	android:appComponentFactory
		ADDED from [androidx.core:core:1.5.0] C:\Users\piyat\.gradle\caches\transforms-3\809ddce9e66ca99403b9a3e2d0b9af39\transformed\core-1.5.0\AndroidManifest.xml:24:18-86
	android:supportsRtl
		ADDED from D:\cs\cs 4.1\android\070822\android-basics-kotlin-dessert-clicker-app-starter\app\src\main\AndroidManifest.xml:25:9-35
	android:label
		ADDED from D:\cs\cs 4.1\android\070822\android-basics-kotlin-dessert-clicker-app-starter\app\src\main\AndroidManifest.xml:23:9-41
	android:roundIcon
		ADDED from D:\cs\cs 4.1\android\070822\android-basics-kotlin-dessert-clicker-app-starter\app\src\main\AndroidManifest.xml:24:9-61
	android:icon
		ADDED from D:\cs\cs 4.1\android\070822\android-basics-kotlin-dessert-clicker-app-starter\app\src\main\AndroidManifest.xml:22:9-50
	android:allowBackup
		ADDED from D:\cs\cs 4.1\android\070822\android-basics-kotlin-dessert-clicker-app-starter\app\src\main\AndroidManifest.xml:21:9-35
	android:theme
		ADDED from D:\cs\cs 4.1\android\070822\android-basics-kotlin-dessert-clicker-app-starter\app\src\main\AndroidManifest.xml:26:9-40
activity#com.example.android.dessertclicker.MainActivity
ADDED from D:\cs\cs 4.1\android\070822\android-basics-kotlin-dessert-clicker-app-starter\app\src\main\AndroidManifest.xml:27:9-34:20
	android:exported
		ADDED from D:\cs\cs 4.1\android\070822\android-basics-kotlin-dessert-clicker-app-starter\app\src\main\AndroidManifest.xml:28:13-36
	android:name
		ADDED from D:\cs\cs 4.1\android\070822\android-basics-kotlin-dessert-clicker-app-starter\app\src\main\AndroidManifest.xml:27:19-81
intent-filter#action:name:android.intent.action.MAIN+category:name:android.intent.category.LAUNCHER
ADDED from D:\cs\cs 4.1\android\070822\android-basics-kotlin-dessert-clicker-app-starter\app\src\main\AndroidManifest.xml:29:13-33:29
action#android.intent.action.MAIN
ADDED from D:\cs\cs 4.1\android\070822\android-basics-kotlin-dessert-clicker-app-starter\app\src\main\AndroidManifest.xml:30:17-69
	android:name
		ADDED from D:\cs\cs 4.1\android\070822\android-basics-kotlin-dessert-clicker-app-starter\app\src\main\AndroidManifest.xml:30:25-66
category#android.intent.category.LAUNCHER
ADDED from D:\cs\cs 4.1\android\070822\android-basics-kotlin-dessert-clicker-app-starter\app\src\main\AndroidManifest.xml:32:17-77
	android:name
		ADDED from D:\cs\cs 4.1\android\070822\android-basics-kotlin-dessert-clicker-app-starter\app\src\main\AndroidManifest.xml:32:27-74
uses-sdk
INJECTED from D:\cs\cs 4.1\android\070822\android-basics-kotlin-dessert-clicker-app-starter\app\src\main\AndroidManifest.xml reason: use-sdk injection requested
INJECTED from D:\cs\cs 4.1\android\070822\android-basics-kotlin-dessert-clicker-app-starter\app\src\main\AndroidManifest.xml
INJECTED from D:\cs\cs 4.1\android\070822\android-basics-kotlin-dessert-clicker-app-starter\app\src\main\AndroidManifest.xml
MERGED from [androidx.databinding:databinding-adapters:7.0.3] C:\Users\piyat\.gradle\caches\transforms-3\08a44f76bc0bfde46e1429a2f76af097\transformed\databinding-adapters-7.0.3\AndroidManifest.xml:20:5-44
MERGED from [androidx.databinding:databinding-adapters:7.0.3] C:\Users\piyat\.gradle\caches\transforms-3\08a44f76bc0bfde46e1429a2f76af097\transformed\databinding-adapters-7.0.3\AndroidManifest.xml:20:5-44
MERGED from [androidx.databinding:databinding-ktx:7.0.3] C:\Users\piyat\.gradle\caches\transforms-3\06d73791fd113183629a7063cc6076fc\transformed\jetified-databinding-ktx-7.0.3\AndroidManifest.xml:20:5-44
MERGED from [androidx.databinding:databinding-ktx:7.0.3] C:\Users\piyat\.gradle\caches\transforms-3\06d73791fd113183629a7063cc6076fc\transformed\jetified-databinding-ktx-7.0.3\AndroidManifest.xml:20:5-44
MERGED from [androidx.databinding:databinding-runtime:7.0.3] C:\Users\piyat\.gradle\caches\transforms-3\fa88c089eb037239750e5c3ab5dc50ec\transformed\databinding-runtime-7.0.3\AndroidManifest.xml:20:5-44
MERGED from [androidx.databinding:databinding-runtime:7.0.3] C:\Users\piyat\.gradle\caches\transforms-3\fa88c089eb037239750e5c3ab5dc50ec\transformed\databinding-runtime-7.0.3\AndroidManifest.xml:20:5-44
MERGED from [com.google.android.material:material:1.4.0] C:\Users\piyat\.gradle\caches\transforms-3\b64c581a9daa138f08ffadfeafcf90fd\transformed\material-1.4.0\AndroidManifest.xml:20:5-44
MERGED from [com.google.android.material:material:1.4.0] C:\Users\piyat\.gradle\caches\transforms-3\b64c581a9daa138f08ffadfeafcf90fd\transformed\material-1.4.0\AndroidManifest.xml:20:5-44
MERGED from [androidx.constraintlayout:constraintlayout:2.1.1] C:\Users\piyat\.gradle\caches\transforms-3\c6e6b7c8875e264f9f97d3822c951574\transformed\constraintlayout-2.1.1\AndroidManifest.xml:5:5-7:41
MERGED from [androidx.constraintlayout:constraintlayout:2.1.1] C:\Users\piyat\.gradle\caches\transforms-3\c6e6b7c8875e264f9f97d3822c951574\transformed\constraintlayout-2.1.1\AndroidManifest.xml:5:5-7:41
MERGED from [androidx.appcompat:appcompat:1.3.1] C:\Users\piyat\.gradle\caches\transforms-3\a41f65a1b182ec9e11a9bbe3d48996cb\transformed\appcompat-1.3.1\AndroidManifest.xml:20:5-22:41
MERGED from [androidx.appcompat:appcompat:1.3.1] C:\Users\piyat\.gradle\caches\transforms-3\a41f65a1b182ec9e11a9bbe3d48996cb\transformed\appcompat-1.3.1\AndroidManifest.xml:20:5-22:41
MERGED from [androidx.lifecycle:lifecycle-extensions:2.2.0] C:\Users\piyat\.gradle\caches\transforms-3\8d5d83c8b0491c093e6174b1bf4d44e5\transformed\lifecycle-extensions-2.2.0\AndroidManifest.xml:20:5-22:41
MERGED from [androidx.lifecycle:lifecycle-extensions:2.2.0] C:\Users\piyat\.gradle\caches\transforms-3\8d5d83c8b0491c093e6174b1bf4d44e5\transformed\lifecycle-extensions-2.2.0\AndroidManifest.xml:20:5-22:41
MERGED from [androidx.viewpager2:viewpager2:1.0.0] C:\Users\piyat\.gradle\caches\transforms-3\f20e658da7692681c8bd44c3436e9874\transformed\jetified-viewpager2-1.0.0\AndroidManifest.xml:20:5-22:41
MERGED from [androidx.viewpager2:viewpager2:1.0.0] C:\Users\piyat\.gradle\caches\transforms-3\f20e658da7692681c8bd44c3436e9874\transformed\jetified-viewpager2-1.0.0\AndroidManifest.xml:20:5-22:41
MERGED from [androidx.fragment:fragment:1.3.6] C:\Users\piyat\.gradle\caches\transforms-3\ba4991d87bc44489b24732ceb6018d63\transformed\fragment-1.3.6\AndroidManifest.xml:20:5-22:41
MERGED from [androidx.fragment:fragment:1.3.6] C:\Users\piyat\.gradle\caches\transforms-3\ba4991d87bc44489b24732ceb6018d63\transformed\fragment-1.3.6\AndroidManifest.xml:20:5-22:41
MERGED from [androidx.activity:activity:1.2.4] C:\Users\piyat\.gradle\caches\transforms-3\8e47eee6ba114b0eb7d7e253cf31940a\transformed\jetified-activity-1.2.4\AndroidManifest.xml:20:5-22:41
MERGED from [androidx.activity:activity:1.2.4] C:\Users\piyat\.gradle\caches\transforms-3\8e47eee6ba114b0eb7d7e253cf31940a\transformed\jetified-activity-1.2.4\AndroidManifest.xml:20:5-22:41
MERGED from [androidx.appcompat:appcompat-resources:1.3.1] C:\Users\piyat\.gradle\caches\transforms-3\b8b350c66e1bae521a6c8a10b95f5f20\transformed\jetified-appcompat-resources-1.3.1\AndroidManifest.xml:20:5-22:41
MERGED from [androidx.appcompat:appcompat-resources:1.3.1] C:\Users\piyat\.gradle\caches\transforms-3\b8b350c66e1bae521a6c8a10b95f5f20\transformed\jetified-appcompat-resources-1.3.1\AndroidManifest.xml:20:5-22:41
MERGED from [androidx.drawerlayout:drawerlayout:1.0.0] C:\Users\piyat\.gradle\caches\transforms-3\3d9b666e8753ee91985d326ee432e540\transformed\drawerlayout-1.0.0\AndroidManifest.xml:20:5-44
MERGED from [androidx.drawerlayout:drawerlayout:1.0.0] C:\Users\piyat\.gradle\caches\transforms-3\3d9b666e8753ee91985d326ee432e540\transformed\drawerlayout-1.0.0\AndroidManifest.xml:20:5-44
MERGED from [androidx.coordinatorlayout:coordinatorlayout:1.1.0] C:\Users\piyat\.gradle\caches\transforms-3\d02084a864f4e30a2f48c6b9eb01b52b\transformed\coordinatorlayout-1.1.0\AndroidManifest.xml:20:5-22:41
MERGED from [androidx.coordinatorlayout:coordinatorlayout:1.1.0] C:\Users\piyat\.gradle\caches\transforms-3\d02084a864f4e30a2f48c6b9eb01b52b\transformed\coordinatorlayout-1.1.0\AndroidManifest.xml:20:5-22:41
MERGED from [androidx.dynamicanimation:dynamicanimation:1.0.0] C:\Users\piyat\.gradle\caches\transforms-3\6573456f1b21b143915dbfdebcbd2bc4\transformed\dynamicanimation-1.0.0\AndroidManifest.xml:20:5-44
MERGED from [androidx.dynamicanimation:dynamicanimation:1.0.0] C:\Users\piyat\.gradle\caches\transforms-3\6573456f1b21b143915dbfdebcbd2bc4\transformed\dynamicanimation-1.0.0\AndroidManifest.xml:20:5-44
MERGED from [androidx.transition:transition:1.2.0] C:\Users\piyat\.gradle\caches\transforms-3\94b3e8f4666ed8e1388191a5fc011b9e\transformed\transition-1.2.0\AndroidManifest.xml:20:5-22:41
MERGED from [androidx.transition:transition:1.2.0] C:\Users\piyat\.gradle\caches\transforms-3\94b3e8f4666ed8e1388191a5fc011b9e\transformed\transition-1.2.0\AndroidManifest.xml:20:5-22:41
MERGED from [androidx.vectordrawable:vectordrawable-animated:1.1.0] C:\Users\piyat\.gradle\caches\transforms-3\ae153f83ce77cbb7db268a4b0cc0fdd6\transformed\vectordrawable-animated-1.1.0\AndroidManifest.xml:20:5-22:41
MERGED from [androidx.vectordrawable:vectordrawable-animated:1.1.0] C:\Users\piyat\.gradle\caches\transforms-3\ae153f83ce77cbb7db268a4b0cc0fdd6\transformed\vectordrawable-animated-1.1.0\AndroidManifest.xml:20:5-22:41
MERGED from [androidx.vectordrawable:vectordrawable:1.1.0] C:\Users\piyat\.gradle\caches\transforms-3\e0977116317d9a78ee8c487fa15d7b6b\transformed\vectordrawable-1.1.0\AndroidManifest.xml:20:5-22:41
MERGED from [androidx.vectordrawable:vectordrawable:1.1.0] C:\Users\piyat\.gradle\caches\transforms-3\e0977116317d9a78ee8c487fa15d7b6b\transformed\vectordrawable-1.1.0\AndroidManifest.xml:20:5-22:41
MERGED from [androidx.viewpager:viewpager:1.0.0] C:\Users\piyat\.gradle\caches\transforms-3\3c78f5ed1630efcc3cd9dea3ded253bf\transformed\viewpager-1.0.0\AndroidManifest.xml:20:5-44
MERGED from [androidx.viewpager:viewpager:1.0.0] C:\Users\piyat\.gradle\caches\transforms-3\3c78f5ed1630efcc3cd9dea3ded253bf\transformed\viewpager-1.0.0\AndroidManifest.xml:20:5-44
MERGED from [androidx.legacy:legacy-support-core-utils:1.0.0] C:\Users\piyat\.gradle\caches\transforms-3\c80b889a3047ecf71e0ef4e2506dcaba\transformed\legacy-support-core-utils-1.0.0\AndroidManifest.xml:20:5-44
MERGED from [androidx.legacy:legacy-support-core-utils:1.0.0] C:\Users\piyat\.gradle\caches\transforms-3\c80b889a3047ecf71e0ef4e2506dcaba\transformed\legacy-support-core-utils-1.0.0\AndroidManifest.xml:20:5-44
MERGED from [androidx.loader:loader:1.0.0] C:\Users\piyat\.gradle\caches\transforms-3\f785a0b962ae08fc7afefe6b0fd39427\transformed\loader-1.0.0\AndroidManifest.xml:20:5-44
MERGED from [androidx.loader:loader:1.0.0] C:\Users\piyat\.gradle\caches\transforms-3\f785a0b962ae08fc7afefe6b0fd39427\transformed\loader-1.0.0\AndroidManifest.xml:20:5-44
MERGED from [androidx.recyclerview:recyclerview:1.1.0] C:\Users\piyat\.gradle\caches\transforms-3\1b79bcd88b26c32ec6486c8931a58369\transformed\recyclerview-1.1.0\AndroidManifest.xml:20:5-22:41
MERGED from [androidx.recyclerview:recyclerview:1.1.0] C:\Users\piyat\.gradle\caches\transforms-3\1b79bcd88b26c32ec6486c8931a58369\transformed\recyclerview-1.1.0\AndroidManifest.xml:20:5-22:41
MERGED from [androidx.customview:customview:1.0.0] C:\Users\piyat\.gradle\caches\transforms-3\f1a81a42c8ff15780a4adadf7c35e44d\transformed\customview-1.0.0\AndroidManifest.xml:20:5-44
MERGED from [androidx.customview:customview:1.0.0] C:\Users\piyat\.gradle\caches\transforms-3\f1a81a42c8ff15780a4adadf7c35e44d\transformed\customview-1.0.0\AndroidManifest.xml:20:5-44
MERGED from [androidx.core:core:1.5.0] C:\Users\piyat\.gradle\caches\transforms-3\809ddce9e66ca99403b9a3e2d0b9af39\transformed\core-1.5.0\AndroidManifest.xml:20:5-22:41
MERGED from [androidx.core:core:1.5.0] C:\Users\piyat\.gradle\caches\transforms-3\809ddce9e66ca99403b9a3e2d0b9af39\transformed\core-1.5.0\AndroidManifest.xml:20:5-22:41
MERGED from [androidx.versionedparcelable:versionedparcelable:1.1.1] C:\Users\piyat\.gradle\caches\transforms-3\59f55c60b75f4ec7c431101538ca0695\transformed\versionedparcelable-1.1.1\AndroidManifest.xml:20:5-22:41
MERGED from [androidx.versionedparcelable:versionedparcelable:1.1.1] C:\Users\piyat\.gradle\caches\transforms-3\59f55c60b75f4ec7c431101538ca0695\transformed\versionedparcelable-1.1.1\AndroidManifest.xml:20:5-22:41
MERGED from [androidx.databinding:viewbinding:7.0.3] C:\Users\piyat\.gradle\caches\transforms-3\119217694d324432b60b6cb1bf0212d0\transformed\jetified-viewbinding-7.0.3\AndroidManifest.xml:20:5-44
MERGED from [androidx.databinding:viewbinding:7.0.3] C:\Users\piyat\.gradle\caches\transforms-3\119217694d324432b60b6cb1bf0212d0\transformed\jetified-viewbinding-7.0.3\AndroidManifest.xml:20:5-44
MERGED from [androidx.lifecycle:lifecycle-runtime-ktx:2.2.0] C:\Users\piyat\.gradle\caches\transforms-3\3470a170942cfd16cab8e01f6a4bba05\transformed\jetified-lifecycle-runtime-ktx-2.2.0\AndroidManifest.xml:20:5-22:41
MERGED from [androidx.lifecycle:lifecycle-runtime-ktx:2.2.0] C:\Users\piyat\.gradle\caches\transforms-3\3470a170942cfd16cab8e01f6a4bba05\transformed\jetified-lifecycle-runtime-ktx-2.2.0\AndroidManifest.xml:20:5-22:41
MERGED from [androidx.lifecycle:lifecycle-process:2.2.0] C:\Users\piyat\.gradle\caches\transforms-3\d021bec982e8e10b97ccac4f686ff33c\transformed\jetified-lifecycle-process-2.2.0\AndroidManifest.xml:20:5-22:41
MERGED from [androidx.lifecycle:lifecycle-process:2.2.0] C:\Users\piyat\.gradle\caches\transforms-3\d021bec982e8e10b97ccac4f686ff33c\transformed\jetified-lifecycle-process-2.2.0\AndroidManifest.xml:20:5-22:41
MERGED from [androidx.lifecycle:lifecycle-service:2.2.0] C:\Users\piyat\.gradle\caches\transforms-3\a6a2cbe5185f6e3515044298698e354e\transformed\jetified-lifecycle-service-2.2.0\AndroidManifest.xml:20:5-22:41
MERGED from [androidx.lifecycle:lifecycle-service:2.2.0] C:\Users\piyat\.gradle\caches\transforms-3\a6a2cbe5185f6e3515044298698e354e\transformed\jetified-lifecycle-service-2.2.0\AndroidManifest.xml:20:5-22:41
MERGED from [androidx.lifecycle:lifecycle-runtime:2.3.1] C:\Users\piyat\.gradle\caches\transforms-3\c8995e00295f143768a28e95e891f2f4\transformed\lifecycle-runtime-2.3.1\AndroidManifest.xml:20:5-22:41
MERGED from [androidx.lifecycle:lifecycle-runtime:2.3.1] C:\Users\piyat\.gradle\caches\transforms-3\c8995e00295f143768a28e95e891f2f4\transformed\lifecycle-runtime-2.3.1\AndroidManifest.xml:20:5-22:41
MERGED from [androidx.cursoradapter:cursoradapter:1.0.0] C:\Users\piyat\.gradle\caches\transforms-3\87c7be2790850eea814cd66c813d96d7\transformed\cursoradapter-1.0.0\AndroidManifest.xml:20:5-44
MERGED from [androidx.cursoradapter:cursoradapter:1.0.0] C:\Users\piyat\.gradle\caches\transforms-3\87c7be2790850eea814cd66c813d96d7\transformed\cursoradapter-1.0.0\AndroidManifest.xml:20:5-44
MERGED from [androidx.lifecycle:lifecycle-viewmodel-savedstate:2.3.1] C:\Users\piyat\.gradle\caches\transforms-3\2713bfec98872afbbb34e9b7ab15daa4\transformed\jetified-lifecycle-viewmodel-savedstate-2.3.1\AndroidManifest.xml:20:5-22:41
MERGED from [androidx.lifecycle:lifecycle-viewmodel-savedstate:2.3.1] C:\Users\piyat\.gradle\caches\transforms-3\2713bfec98872afbbb34e9b7ab15daa4\transformed\jetified-lifecycle-viewmodel-savedstate-2.3.1\AndroidManifest.xml:20:5-22:41
MERGED from [androidx.savedstate:savedstate:1.1.0] C:\Users\piyat\.gradle\caches\transforms-3\3b2c9c620de09f2890ea53d7ec68fa11\transformed\jetified-savedstate-1.1.0\AndroidManifest.xml:20:5-22:41
MERGED from [androidx.savedstate:savedstate:1.1.0] C:\Users\piyat\.gradle\caches\transforms-3\3b2c9c620de09f2890ea53d7ec68fa11\transformed\jetified-savedstate-1.1.0\AndroidManifest.xml:20:5-22:41
MERGED from [androidx.lifecycle:lifecycle-viewmodel:2.3.1] C:\Users\piyat\.gradle\caches\transforms-3\8833a61958ada1483003b8864c572a5d\transformed\lifecycle-viewmodel-2.3.1\AndroidManifest.xml:20:5-22:41
MERGED from [androidx.lifecycle:lifecycle-viewmodel:2.3.1] C:\Users\piyat\.gradle\caches\transforms-3\8833a61958ada1483003b8864c572a5d\transformed\lifecycle-viewmodel-2.3.1\AndroidManifest.xml:20:5-22:41
MERGED from [androidx.cardview:cardview:1.0.0] C:\Users\piyat\.gradle\caches\transforms-3\06758e689f0bced597b4e1b1801419a2\transformed\cardview-1.0.0\AndroidManifest.xml:20:5-44
MERGED from [androidx.cardview:cardview:1.0.0] C:\Users\piyat\.gradle\caches\transforms-3\06758e689f0bced597b4e1b1801419a2\transformed\cardview-1.0.0\AndroidManifest.xml:20:5-44
MERGED from [androidx.lifecycle:lifecycle-livedata:2.2.0] C:\Users\piyat\.gradle\caches\transforms-3\23d4948b07529fb6cdf9896373fdd373\transformed\lifecycle-livedata-2.2.0\AndroidManifest.xml:20:5-22:41
MERGED from [androidx.lifecycle:lifecycle-livedata:2.2.0] C:\Users\piyat\.gradle\caches\transforms-3\23d4948b07529fb6cdf9896373fdd373\transformed\lifecycle-livedata-2.2.0\AndroidManifest.xml:20:5-22:41
MERGED from [androidx.lifecycle:lifecycle-livedata-core:2.3.1] C:\Users\piyat\.gradle\caches\transforms-3\b5f3c2155ad874157b3f7819fffcfab5\transformed\lifecycle-livedata-core-2.3.1\AndroidManifest.xml:20:5-22:41
MERGED from [androidx.lifecycle:lifecycle-livedata-core:2.3.1] C:\Users\piyat\.gradle\caches\transforms-3\b5f3c2155ad874157b3f7819fffcfab5\transformed\lifecycle-livedata-core-2.3.1\AndroidManifest.xml:20:5-22:41
MERGED from [androidx.arch.core:core-runtime:2.1.0] C:\Users\piyat\.gradle\caches\transforms-3\b02ee0dc154ea8fc0edf2ba3acf7bc41\transformed\core-runtime-2.1.0\AndroidManifest.xml:20:5-22:41
MERGED from [androidx.arch.core:core-runtime:2.1.0] C:\Users\piyat\.gradle\caches\transforms-3\b02ee0dc154ea8fc0edf2ba3acf7bc41\transformed\core-runtime-2.1.0\AndroidManifest.xml:20:5-22:41
MERGED from [androidx.tracing:tracing:1.0.0] C:\Users\piyat\.gradle\caches\transforms-3\a68c583d7d2888ce27364aa9ee7b4951\transformed\jetified-tracing-1.0.0\AndroidManifest.xml:20:5-22:41
MERGED from [androidx.tracing:tracing:1.0.0] C:\Users\piyat\.gradle\caches\transforms-3\a68c583d7d2888ce27364aa9ee7b4951\transformed\jetified-tracing-1.0.0\AndroidManifest.xml:20:5-22:41
MERGED from [androidx.interpolator:interpolator:1.0.0] C:\Users\piyat\.gradle\caches\transforms-3\9825ca5498c366b52bd49e6ab2f1bf0d\transformed\interpolator-1.0.0\AndroidManifest.xml:20:5-44
MERGED from [androidx.interpolator:interpolator:1.0.0] C:\Users\piyat\.gradle\caches\transforms-3\9825ca5498c366b52bd49e6ab2f1bf0d\transformed\interpolator-1.0.0\AndroidManifest.xml:20:5-44
MERGED from [androidx.documentfile:documentfile:1.0.0] C:\Users\piyat\.gradle\caches\transforms-3\43cacd4cff57d90357de9238200ed227\transformed\documentfile-1.0.0\AndroidManifest.xml:20:5-44
MERGED from [androidx.documentfile:documentfile:1.0.0] C:\Users\piyat\.gradle\caches\transforms-3\43cacd4cff57d90357de9238200ed227\transformed\documentfile-1.0.0\AndroidManifest.xml:20:5-44
MERGED from [androidx.localbroadcastmanager:localbroadcastmanager:1.0.0] C:\Users\piyat\.gradle\caches\transforms-3\1feed067c3ccb2060a22de2b8fbdda64\transformed\localbroadcastmanager-1.0.0\AndroidManifest.xml:20:5-44
MERGED from [androidx.localbroadcastmanager:localbroadcastmanager:1.0.0] C:\Users\piyat\.gradle\caches\transforms-3\1feed067c3ccb2060a22de2b8fbdda64\transformed\localbroadcastmanager-1.0.0\AndroidManifest.xml:20:5-44
MERGED from [androidx.print:print:1.0.0] C:\Users\piyat\.gradle\caches\transforms-3\83a821c5ed854de3bf4d1e5fa7440a04\transformed\print-1.0.0\AndroidManifest.xml:20:5-44
MERGED from [androidx.print:print:1.0.0] C:\Users\piyat\.gradle\caches\transforms-3\83a821c5ed854de3bf4d1e5fa7440a04\transformed\print-1.0.0\AndroidManifest.xml:20:5-44
MERGED from [androidx.annotation:annotation-experimental:1.0.0] C:\Users\piyat\.gradle\caches\transforms-3\e2889e29c071c6538bd764c3ca276473\transformed\jetified-annotation-experimental-1.0.0\AndroidManifest.xml:20:5-22:41
MERGED from [androidx.annotation:annotation-experimental:1.0.0] C:\Users\piyat\.gradle\caches\transforms-3\e2889e29c071c6538bd764c3ca276473\transformed\jetified-annotation-experimental-1.0.0\AndroidManifest.xml:20:5-22:41
INJECTED from D:\cs\cs 4.1\android\070822\android-basics-kotlin-dessert-clicker-app-starter\app\src\main\AndroidManifest.xml
INJECTED from D:\cs\cs 4.1\android\070822\android-basics-kotlin-dessert-clicker-app-starter\app\src\main\AndroidManifest.xml
	android:targetSdkVersion
		INJECTED from D:\cs\cs 4.1\android\070822\android-basics-kotlin-dessert-clicker-app-starter\app\src\main\AndroidManifest.xml
		ADDED from D:\cs\cs 4.1\android\070822\android-basics-kotlin-dessert-clicker-app-starter\app\src\main\AndroidManifest.xml
		INJECTED from D:\cs\cs 4.1\android\070822\android-basics-kotlin-dessert-clicker-app-starter\app\src\main\AndroidManifest.xml
	android:minSdkVersion
		INJECTED from D:\cs\cs 4.1\android\070822\android-basics-kotlin-dessert-clicker-app-starter\app\src\main\AndroidManifest.xml
		ADDED from D:\cs\cs 4.1\android\070822\android-basics-kotlin-dessert-clicker-app-starter\app\src\main\AndroidManifest.xml
		INJECTED from D:\cs\cs 4.1\android\070822\android-basics-kotlin-dessert-clicker-app-starter\app\src\main\AndroidManifest.xml
provider#androidx.lifecycle.ProcessLifecycleOwnerInitializer
ADDED from [androidx.lifecycle:lifecycle-process:2.2.0] C:\Users\piyat\.gradle\caches\transforms-3\d021bec982e8e10b97ccac4f686ff33c\transformed\jetified-lifecycle-process-2.2.0\AndroidManifest.xml:25:9-29:43
	android:authorities
		ADDED from [androidx.lifecycle:lifecycle-process:2.2.0] C:\Users\piyat\.gradle\caches\transforms-3\d021bec982e8e10b97ccac4f686ff33c\transformed\jetified-lifecycle-process-2.2.0\AndroidManifest.xml:27:13-69
	android:multiprocess
		ADDED from [androidx.lifecycle:lifecycle-process:2.2.0] C:\Users\piyat\.gradle\caches\transforms-3\d021bec982e8e10b97ccac4f686ff33c\transformed\jetified-lifecycle-process-2.2.0\AndroidManifest.xml:29:13-40
	android:exported
		ADDED from [androidx.lifecycle:lifecycle-process:2.2.0] C:\Users\piyat\.gradle\caches\transforms-3\d021bec982e8e10b97ccac4f686ff33c\transformed\jetified-lifecycle-process-2.2.0\AndroidManifest.xml:28:13-37
	android:name
		ADDED from [androidx.lifecycle:lifecycle-process:2.2.0] C:\Users\piyat\.gradle\caches\transforms-3\d021bec982e8e10b97ccac4f686ff33c\transformed\jetified-lifecycle-process-2.2.0\AndroidManifest.xml:26:13-79
